<svg width="18" height="18" viewBox="0 0 18 18" fill="none" xmlns="http://www.w3.org/2000/svg">
<path d="M15.2218 8.11108V16.4666C15.2218 16.7612 14.983 17 14.6885 17H3.31068C3.01613 17 2.77734 16.7612 2.77734 16.4666V8.11108" stroke="#82848E" stroke-width="1.5" stroke-linecap="round" stroke-linejoin="round"/>
<path d="M7.22266 13.4444V8.11108" stroke="#82848E" stroke-width="1.5" stroke-linecap="round" stroke-linejoin="round"/>
<path d="M10.7773 13.4444V8.11108" stroke="#82848E" stroke-width="1.5" stroke-linecap="round" stroke-linejoin="round"/>
<path d="M5.44444 4.55556H12.5556M17 4.55556H12.5556H17ZM1 4.55556H5.44444H1ZM5.44444 4.55556V1.53333C5.44444 1.23878 5.68323 1 5.97778 1H12.0222C12.3168 1 12.5556 1.23878 12.5556 1.53333V4.55556H5.44444Z" stroke="#82848E" stroke-width="1.5" stroke-linecap="round" stroke-linejoin="round"/>
</svg>
